{
  "upbit": [
    {
      "name": "리플",
      "symbol": "XRP"
    },
    {
      "name": "비트코인",
      "symbol": "BTC"
    },
    {
      "name": "이더리움",
      "symbol": "ETH"
    },
    {
      "name": "이오스",
      "symbol": "EOS"
    },
    {
      "name": "비트코인캐시",
      "symbol": "BCH"
    },
    {
      "name": "에이다",
      "symbol": "ADA"
    },
    {
      "name": "스텔라루멘",
      "symbol": "XLM"
    },
    {
      "name": "트론",
      "symbol": "TRX"
    },
    {
      "name": "그로스톨코인",
      "symbol": "GRS"
    },
    {
      "name": "넴",
      "symbol": "XEM"
    },
    {
      "name": "아이콘",
      "symbol": "ICX"
    },
    {
      "name": "질리카",
      "symbol": "ZIL"
    },
    {
      "name": "퀀텀",
      "symbol": "QTUM"
    },
    {
      "name": "지캐시",
      "symbol": "ZEC"
    },
    {
      "name": "이더리움클래식",
      "symbol": "ETC"
    },
    {
      "name": "리퍼리움",
      "symbol": "RFR"
    },
    {
      "name": "아이오에스티",
      "symbol": "IOST"
    },
    {
      "name": "온톨로지가스",
      "symbol": "ONG"
    },
    {
      "name": "디크레드",
      "symbol": "DCR"
    },
    {
      "name": "시아코인",
      "symbol": "SC"
    },
    {
      "name": "스테이터스네트워크토큰",
      "symbol": "SNT"
    },
    {
      "name": "오미세고",
      "symbol": "OMG"
    },
    {
      "name": "네오",
      "symbol": "NEO"
    },
    {
      "name": "스톰",
      "symbol": "STORM"
    },
    {
      "name": "라이트코인",
      "symbol": "LTC"
    },
    {
      "name": "폴리매쓰",
      "symbol": "POLY"
    },
    {
      "name": "에브리피디아",
      "symbol": "IQ"
    },
    {
      "name": "파워렛저",
      "symbol": "POWR"
    },
    {
      "name": "오에스티",
      "symbol": "OST"
    },
    {
      "name": "블록틱스",
      "symbol": "TIX"
    },
    {
      "name": "스팀",
      "symbol": "STEEM"
    },
    {
      "name": "온톨로지",
      "symbol": "ONT"
    },
    {
      "name": "애드토큰",
      "symbol": "ADT"
    },
    {
      "name": "아더",
      "symbol": "ARDR"
    },
    {
      "name": "디마켓",
      "symbol": "DMT"
    },
    {
      "name": "기프토",
      "symbol": "GTO"
    },
    {
      "name": "모나코",
      "symbol": "MCO"
    },
    {
      "name": "이그니스",
      "symbol": "IGNIS"
    },
    {
      "name": "스팀달러",
      "symbol": "SBD"
    },
    {
      "name": "메인프레임",
      "symbol": "MFT"
    },
    {
      "name": "골렘",
      "symbol": "GNT"
    },
    {
      "name": "아인스타이늄",
      "symbol": "EMC2"
    },
    {
      "name": "머큐리",
      "symbol": "MER"
    },
    {
      "name": "베이직어텐션토큰",
      "symbol": "BAT"
    },
    {
      "name": "룸네트워크",
      "symbol": "LOOM"
    },
    {
      "name": "아이오타",
      "symbol": "IOTA"
    },
    {
      "name": "웨이브",
      "symbol": "WAVES"
    },
    {
      "name": "비트코인골드",
      "symbol": "BTG"
    },
    {
      "name": "모네로",
      "symbol": "XMR"
    },
    {
      "name": "피벡스",
      "symbol": "PIVX"
    },
    {
      "name": "시린토큰",
      "symbol": "SRN"
    },
    {
      "name": "메탈",
      "symbol": "MTL"
    },
    {
      "name": "제로엑스",
      "symbol": "ZRX"
    },
    {
      "name": "어거",
      "symbol": "REP"
    },
    {
      "name": "가스",
      "symbol": "GAS"
    },
    {
      "name": "대시",
      "symbol": "DASH"
    },
    {
      "name": "아크",
      "symbol": "ARK"
    },
    {
      "name": "스토리지",
      "symbol": "STORJ"
    },
    {
      "name": "리스크",
      "symbol": "LSK"
    },
    {
      "name": "스트라티스",
      "symbol": "STRAT"
    },
    {
      "name": "코모도",
      "symbol": "KMD"
    },
    {
      "name": "버트코인",
      "symbol": "VTC"
    },
    {
      "name": "시빅",
      "symbol": "CVC"
    },
    {
      "name": "애드엑스",
      "symbol": "ADX"
    }
  ]
}
